<svg width="13" height="13" viewBox="0 0 13 13" fill="none" xmlns="http://www.w3.org/2000/svg">
<g clip-path="url(#clip0)">
<path d="M7.93856 7.14357L2.34875 12.7332C1.99317 13.0889 1.41666 13.0889 1.06125 12.7332C0.70582 12.3778 0.70582 11.8013 1.06125 11.4459L6.00737 6.49991L1.0614 1.5541C0.705964 1.1985 0.705964 0.622101 1.0614 0.266701C1.41683 -0.0888993 1.99332 -0.0888993 2.34889 0.266701L7.9387 5.85639C8.11642 6.03419 8.20518 6.26698 8.20518 6.49988C8.20518 6.73289 8.11624 6.96585 7.93856 7.14357Z" fill="#C4C4C4"/>
</g>
<g clip-path="url(#clip1)">
<path d="M11.9386 7.14357L6.34875 12.7332C5.99317 13.0889 5.41666 13.0889 5.06125 12.7332C4.70582 12.3778 4.70582 11.8013 5.06125 11.4459L10.0074 6.49991L5.0614 1.5541C4.70596 1.1985 4.70596 0.622101 5.0614 0.266701C5.41683 -0.0888993 5.99332 -0.0888993 6.34889 0.266701L11.9387 5.85639C12.1164 6.03419 12.2052 6.26698 12.2052 6.49988C12.2052 6.73289 12.1162 6.96585 11.9386 7.14357Z" fill="#C4C4C4"/>
</g>
<defs>
<clipPath id="clip0">
<rect width="13" height="9" fill="white" transform="translate(0 13) rotate(-90)"/>
</clipPath>
<clipPath id="clip1">
<rect width="13" height="9" fill="white" transform="translate(4 13) rotate(-90)"/>
</clipPath>
</defs>
</svg>
